<?xml version="1.0" encoding="utf-8"?>
<!DOCTYPE TS>
<TS version="2.1">
<context>
    <name>QObject</name>
    <message>
        <location filename="main.cpp" line="40"/>
        <source>
newline at the start</source>
        <translation>
NEWLINE AT THE START</translation>
    </message>
    <message>
        <location filename="main.cpp" line="41"/>
        <source>newline at the end
</source>
        <translation>NEWLINE AT THE END
</translation>
    </message>
    <message>
        <location filename="main.cpp" line="42"/>
        <source>newline and space at the end
 </source>
        <translation>NEWLINE AND SPACE AT THE END
 </translation>
    </message>
    <message>
        <location filename="main.cpp" line="43"/>
        <source>space and newline at the end 
</source>
        <translation>SPACE AND NEWLINE AT THE END 
</translation>
    </message>
    <message>
        <location filename="main.cpp" line="44"/>
        <source>	Tab at the start and newline at the end
</source>
        <translation>	TAB AT THE START AND NEWLINE AT THE END
</translation>
    </message>
    <message>
        <location filename="main.cpp" line="45"/>
        <source>
	newline and tab at the start</source>
        <translation>
	NEWLINE AND TAB AT THE START</translation>
    </message>
    <message>
        <location filename="main.cpp" line="46"/>
        <source> 	space and tab at the start</source>
        <translation> 	SPACE AND TAB AT THE START</translation>
    </message>
    <message>
        <location filename="main.cpp" line="47"/>
        <source> space_first</source>
        <translation> SPACE_FIRST</translation>
    </message>
    <message>
        <location filename="main.cpp" line="48"/>
        <source>space_last </source>
        <translation>SPACE_LAST </translation>
    </message>
    <message>
        <location filename="main.cpp" line="49"/>
        <source>carriage return and line feed last
</source>
        <translation type="unfinished">CARRIAGE RETURN AND LINE FEED LAST
</translation>
    </message>
</context>
</TS>
